name,age,company,building_code,phone_number,address
Laure,31,Apple,790,7404899684,Luxembourg
Asia,81,Facebook,850,8749808910,Azerbaijan
Wilma,24,Zomato,113,7859187646,Mauritania
Kristan,50,Facebook,839,9065283391,Sao Tome and Principe
Bobinette,74,Paytm,368,9155984863,Germany