name,age,company,building_code,phone_number,address
Bobbi,24,RazorPay,396,8288374145,New Zealand
Damaris,54,Facebook,605,8859567557,Fiji
Ashlee,77,Swiggy,202,9161308571,Hungary
Genovera,73,Apple,903,8651646882,Reunion
Carmencita,48,RazorPay,109,9472149921,Uruguay