name,age,company,building_code,phone_number,address
Lisette,33,Swiggy,853,9570563590,Philippines
Carilyn,72,Amazon,681,7589066723,Denmark
Susan,32,PayPal,205,7597818274,Cameroon
Annabela,22,RazorPay,993,7562556728,"Cote D""Ivoire"
Augustine,69,PayPal,901,7486523918,Belgium