name,age,company,building_code,phone_number,address
Marylou,22,PayPal,436,9935701925,Indonesia
Marinna,89,Facebook,267,9064422260,Liechtenstein
Fredericka,60,Zomato,743,8582872188,Vanuatu
Fanchon,51,Zomato,42,8277770290,Macao
Patricia,46,Swiggy,548,7652193072,"Virgin Islands, U.S."