name,age,company,building_code,phone_number,address
Justinn,20,Paytm,160,8748559305,Canada
Sue,35,RazorPay,785,8826131075,Burundi
Loree,26,Swiggy,199,9609985584,Hong Kong
Mathilda,32,Zomato,31,9093971181,Turkey
Dominga,77,RazorPay,629,7462595812,Jersey