name,age,company,building_code,phone_number,address
Amalie,27,Facebook,251,8049836208,French Polynesia
Kaia,50,RazorPay,900,8361645293,Solomon Islands
Marcy,43,Zomato,5,8636855300,Dominican Republic
Charmaine,78,Zomato,727,8199735230,Reunion
Tonia,88,RazorPay,130,7869628629,French Southern Territories