name,age,company,building_code,phone_number,address
Raina,89,Zomato,932,8809981113,Iceland
Lizzie,50,Swiggy,359,9774852463,Ecuador
Brynna,70,PayPal,588,8292892385,Egypt
Tina,77,Swiggy,606,7284758672,Sierra Leone
Ketti,56,Swiggy,793,8577400904,El Salvador