name,age,company,building_code,phone_number,address
Margette,66,Google,285,7743712073,Romania
Corry,81,Zomato,537,9152088022,Cambodia
Cyndie,44,Google,720,8365046880,Madagascar
Kassey,37,PayPal,866,7633754623,Uruguay
Alexine,48,Paytm,134,8832402449,Guinea-Bissau