name,age,company,building_code,phone_number,address
Marcy,87,PayPal,912,9829598207,"Taiwan, Province of China"
Elsie,72,Amazon,925,9603801086,Botswana
Jessy,89,RazorPay,748,7676300916,Colombia
Marika,30,RazorPay,832,9993498477,Namibia
Ardeen,51,Google,461,9910697222,Tonga