name,age,company,building_code,phone_number,address
Heddie,44,Paytm,216,7883538395,Saint Pierre and Miquelon
Karlee,74,PayPal,40,7641074445,Niue
Kate,69,Facebook,559,7893961341,Canada
Kial,83,Google,809,7891030812,South Africa
Juliane,71,PayPal,188,8992537643,Sierra Leone