name,age,company,building_code,phone_number,address
Roberta,59,Apple,914,7592803890,Iceland
Jerry,83,Amazon,365,7580385631,Hong Kong
Pierette,87,Paytm,473,8156187087,Turkey
Evaleen,74,Swiggy,652,7926130281,Burundi
Dede,73,Google,276,9658690596,Central African Republic