name,age,company,building_code,phone_number,address
Melanie,49,Amazon,619,8293594261,Vanuatu
Rayna,58,Apple,433,7612179509,Mexico
Sybille,21,Paytm,656,7186320375,Malawi
Pierette,57,Facebook,274,8646588076,Belize
Gabi,72,Facebook,171,7485274926,"Virgin Islands, U.S."