name,age,company,building_code,phone_number,address
Annaliese,51,Zomato,863,9993747897,Reunion
Libbie,78,Apple,349,7579146488,Latvia
Katleen,69,Swiggy,784,9093705544,United Arab Emirates
Sam,71,Apple,738,9610122744,Saint Lucia
Pamella,74,Amazon,518,7823835537,Costa Rica